{
    "ansible_all_ipv4_addresses": [
        "REDACTED IP ADDRESS"
    ],
    "ansible_all_ipv6_addresses": [
        "REDACTED IPV6 ADDRESS"
    ],
    "ansible_apparmor": {
        "status": "disabled"
    },
    "ansible_architecture": "x86_64",
    "ansible_bios_date": "11/28/2013",
    "ansible_bios_version": "4.1.5",
    "ansible_cmdline": {
        "BOOT_IMAGE": "/boot/vmlinuz-3.10.0-862.14.4.el7.x86_64",
        "console": "ttyS0,115200",
        "no_timer_check": true,
        "nofb": true,
        "nomodeset": true,
        "ro": true,
        "root": "LABEL=cloudimg-rootfs",
        "vga": "normal"
    },
    "ansible_date_time": {
        "date": "2018-10-25",
        "day": "25",
        "epoch": "1540469324",
        "hour": "12",
        "iso8601": "2018-10-25T12:08:44Z",
        "iso8601_basic": "20181025T120844109754",
        "iso8601_basic_short": "20181025T120844",
        "iso8601_micro": "2018-10-25T12:08:44.109968Z",
        "minute": "08",
        "month": "10",
        "second": "44",
        "time": "12:08:44",
        "tz": "UTC",
        "tz_offset": "+0000",
        "weekday": "Thursday",
        "weekday_number": "4",
        "weeknumber": "43",
        "year": "2018"
    },
    "ansible_default_ipv4": {
        "address": "REDACTED",
        "alias": "eth0",
        "broadcast": "REDACTED",
        "gateway": "REDACTED",
        "interface": "eth0",
        "macaddress": "REDACTED",
        "mtu": 1500,
        "netmask": "255.255.255.0",
        "network": "REDACTED",
        "type": "ether"
    },
    "ansible_default_ipv6": {},
    "ansible_device_links": {
        "ids": {},
        "labels": {
            "xvda1": [
                "cloudimg-rootfs"
            ],
            "xvdd": [
                "config-2"
            ]
        },
        "masters": {},
        "uuids": {
            "xvda1": [
                "cac81d61-d0f8-4b47-84aa-b48798239164"
            ],
            "xvdd": [
                "2018-10-25-12-05-57-00"
            ]
        }
    },
    "devices": {
        "sda": {
            "holders": [],
            "host": "",
            "links": {
                "ids": [],
                "labels": [],
                "masters": [],
                "uuids": []
            },
            "model": null,
            "partitions": {
                "sda1": {
                    "holders": [],
                    "links": {
                        "ids": [],
                        "labels": [
                            "cloudimg-rootfs"
                        ],
                        "masters": [],
                        "uuids": [
                            "cac81d61-d0f8-4b47-84aa-b48798239164"
                        ]
                    },
                    "sectors": "83883999",
                    "sectorsize": 512,
                    "size": "40.00 GB",
                    "start": "2048",
                    "uuid": "cac81d61-d0f8-4b47-84aa-b48798239164"
                }
            },
            "removable": "0",
            "rotational": "0",
            "sas_address": null,
            "sas_device_handle": null,
            "scheduler_mode": "deadline",
            "sectors": "83886080",
            "sectorsize": "512",
            "size": "40.00 TB",
            "support_discard": "0",
            "vendor": "DELL",
            "virtual": 1
        },
        "sdd": {
            "holders": [],
            "host": "",
            "links": {
                "ids": [],
                "labels": [
                    "config-2"
                ],
                "masters": [],
                "uuids": [
                    "2018-10-25-12-05-57-00"
                ]
            },
            "model": null,
            "partitions": {},
            "removable": "0",
            "rotational": "0",
            "sas_address": null,
            "sas_device_handle": null,
            "scheduler_mode": "deadline",
            "sectors": "131072",
            "sectorsize": "512",
            "size": "64.00 MB",
            "support_discard": "0",
            "vendor": "DELL",
            "virtual": 1
        },
        "sde": {
            "holders": [],
            "host": "",
            "links": {
                "ids": [],
                "labels": [],
                "masters": [],
                "uuids": []
            },
            "model": null,
            "partitions": {
                "sde1": {
                    "holders": [],
                    "links": {
                        "ids": [],
                        "labels": [],
                        "masters": [],
                        "uuids": []
                    },
                    "sectors": "167770112",
                    "sectorsize": 512,
                    "size": "80.00 GB",
                    "start": "2048",
                    "uuid": null
                }
            },
            "removable": "0",
            "rotational": "0",
            "sas_address": null,
            "sas_device_handle": null,
            "scheduler_mode": "deadline",
            "sectors": "167772160",
            "sectorsize": "512",
            "size": "80.00 GB",
            "support_discard": "0",
            "vendor": "DELL",
            "virtual": 1
        }
    },
    "ansible_distribution": "CentOS",
    "ansible_distribution_file_parsed": true,
    "ansible_distribution_file_path": "/etc/redhat-release",
    "ansible_distribution_file_variety": "RedHat",
    "ansible_distribution_major_version": "7",
    "ansible_distribution_release": "Core",
    "ansible_distribution_version": "7.5.1804",
    "ansible_dns": {
        "nameservers": [
            "127.0.0.1"
        ]
    },
    "ansible_domain": "",
    "ansible_effective_group_id": 1000,
    "ansible_effective_user_id": 1000,
    "ansible_env": {
        "HOME": "/home/zuul",
        "LANG": "en_US.UTF-8",
        "LESSOPEN": "||/usr/bin/lesspipe.sh %s",
        "LOGNAME": "zuul",
        "MAIL": "/var/mail/zuul",
        "PATH": "/usr/local/bin:/usr/bin",
        "PWD": "/home/zuul",
        "SELINUX_LEVEL_REQUESTED": "",
        "SELINUX_ROLE_REQUESTED": "",
        "SELINUX_USE_CURRENT_RANGE": "",
        "SHELL": "/bin/bash",
        "SHLVL": "2",
        "SSH_CLIENT": "REDACTED 55672 22",
        "SSH_CONNECTION": "REDACTED 55672 REDACTED 22",
        "USER": "zuul",
        "XDG_RUNTIME_DIR": "/run/user/1000",
        "XDG_SESSION_ID": "1",
        "_": "/usr/bin/python2"
    },
    "ansible_eth0": {
        "active": true,
        "device": "eth0",
        "ipv4": {
            "address": "REDACTED",
            "broadcast": "REDACTED",
            "netmask": "255.255.255.0",
            "network": "REDACTED"
        },
        "ipv6": [
            {
                "address": "REDACTED",
                "prefix": "64",
                "scope": "link"
            }
        ],
        "macaddress": "REDACTED",
        "module": "xen_netfront",
        "mtu": 1500,
        "pciid": "vif-0",
        "promisc": false,
        "type": "ether"
    },
    "ansible_eth1": {
        "active": true,
        "device": "eth1",
        "ipv4": {
            "address": "REDACTED",
            "broadcast": "REDACTED",
            "netmask": "255.255.224.0",
            "network": "REDACTED"
        },
        "ipv6": [
            {
                "address": "REDACTED",
                "prefix": "64",
                "scope": "link"
            }
        ],
        "macaddress": "REDACTED",
        "module": "xen_netfront",
        "mtu": 1500,
        "pciid": "vif-1",
        "promisc": false,
        "type": "ether"
    },
    "ansible_fips": false,
    "ansible_form_factor": "Other",
    "ansible_fqdn": "centos-7-rax-dfw-0003427354",
    "ansible_hostname": "centos-7-rax-dfw-0003427354",
    "ansible_interfaces": [
        "lo",
        "eth1",
        "eth0"
    ],
    "ansible_is_chroot": false,
    "ansible_kernel": "3.10.0-862.14.4.el7.x86_64",
    "ansible_lo": {
        "active": true,
        "device": "lo",
        "ipv4": {
            "address": "127.0.0.1",
            "broadcast": "host",
            "netmask": "255.0.0.0",
            "network": "127.0.0.0"
        },
        "ipv6": [
            {
                "address": "::1",
                "prefix": "128",
                "scope": "host"
            }
        ],
        "mtu": 65536,
        "promisc": false,
        "type": "loopback"
    },
    "ansible_local": {},
    "ansible_lsb": {
        "codename": "Core",
        "description": "CentOS Linux release 7.5.1804 (Core)",
        "id": "CentOS",
        "major_release": "7",
        "release": "7.5.1804"
    },
    "ansible_machine": "x86_64",
    "ansible_machine_id": "2db133253c984c82aef2fafcce6f2bed",
    "ansible_memfree_mb": 7709,
    "ansible_memory_mb": {
        "nocache": {
            "free": 7804,
            "used": 173
        },
        "real": {
            "free": 7709,
            "total": 7977,
            "used": 268
        },
        "swap": {
            "cached": 0,
            "free": 0,
            "total": 0,
            "used": 0
        }
    },
    "memtotal_mb": 7977,
    "mounts": [
        {
            "block_available": 7220998,
            "block_size": 4096,
            "block_total": 9817227,
            "block_used": 2596229,
            "device": "/dev/xvda1",
            "fstype": "ext4",
            "inode_available": 10052341,
            "inode_total": 10419200,
            "inode_used": 366859,
            "mount": "/",
            "options": "rw,seclabel,relatime,data=ordered",
            "size_available": 29577207808,
            "size_total": 40211361792,
            "uuid": "cac81d61-d0f8-4b47-84aa-b48798239164"
        },
        {
            "block_available": 0,
            "block_size": 2048,
            "block_total": 252,
            "block_used": 252,
            "device": "/dev/xvdd",
            "fstype": "iso9660",
            "inode_available": 0,
            "inode_total": 0,
            "inode_used": 0,
            "mount": "/mnt/config",
            "options": "ro,relatime,mode=0700",
            "size_available": 0,
            "size_total": 516096,
            "uuid": "2018-10-25-12-05-57-00"
        },
        {
            "block_available": 0,
            "block_size": 2048,
            "block_total": 252,
            "block_used": 252,
            "device": "/dev/xvdd",
            "fstype": "nfs",
            "inode_available": 0,
            "inode_total": 0,
            "inode_used": 0,
            "mount": "/mnt/nfs",
            "options": "ro,relatime,mode=0700",
            "size_available": 0,
            "size_total": 516096,
            "uuid": "2018-10-25-12-05-57-00"
        }
    ],
    "ansible_nodename": "centos-7-rax-dfw-0003427354",
    "ansible_os_family": "RedHat",
    "ansible_pkg_mgr": "yum",
    "ansible_processor": [
        "0",
        "GenuineIntel",
        "Intel(R) Xeon(R) CPU E5-2670 0 @ 2.60GHz",
        "1",
        "GenuineIntel",
        "Intel(R) Xeon(R) CPU E5-2670 0 @ 2.60GHz",
        "2",
        "GenuineIntel",
        "Intel(R) Xeon(R) CPU E5-2670 0 @ 2.60GHz",
        "3",
        "GenuineIntel",
        "Intel(R) Xeon(R) CPU E5-2670 0 @ 2.60GHz",
        "4",
        "GenuineIntel",
        "Intel(R) Xeon(R) CPU E5-2670 0 @ 2.60GHz",
        "5",
        "GenuineIntel",
        "Intel(R) Xeon(R) CPU E5-2670 0 @ 2.60GHz",
        "6",
        "GenuineIntel",
        "Intel(R) Xeon(R) CPU E5-2670 0 @ 2.60GHz",
        "7",
        "GenuineIntel",
        "Intel(R) Xeon(R) CPU E5-2670 0 @ 2.60GHz"
    ],
    "processor_cores": 8,
    "ansible_processor_count": 8,
    "ansible_processor_nproc": 8,
    "ansible_processor_threads_per_core": 1,
    "ansible_processor_vcpus": 8,
    "ansible_product_name": "HVM domU",
    "ansible_product_serial": "REDACTED",
    "ansible_product_uuid": "REDACTED",
    "ansible_product_version": "4.1.5",
    "ansible_python": {
        "executable": "/usr/bin/python2",
        "has_sslcontext": true,
        "type": "CPython",
        "version": {
            "major": 2,
            "micro": 5,
            "minor": 7,
            "releaselevel": "final",
            "serial": 0
        },
        "version_info": [
            2,
            7,
            5,
            "final",
            0
        ]
    },
    "ansible_python_version": "2.7.5",
    "ansible_real_group_id": 1000,
    "ansible_real_user_id": 1000,
    "ansible_selinux": {
        "config_mode": "enforcing",
        "mode": "enforcing",
        "policyvers": 31,
        "status": "enabled",
        "type": "targeted"
    },
    "ansible_selinux_python_present": true,
    "ansible_service_mgr": "systemd",
    "ansible_ssh_host_key_ecdsa_public": "REDACTED KEY VALUE",
    "ansible_ssh_host_key_ed25519_public": "REDACTED KEY VALUE",
    "ansible_ssh_host_key_rsa_public": "REDACTED KEY VALUE",
    "ansible_swapfree_mb": 0,
    "ansible_swaptotal_mb": 0,
    "ansible_system": "Linux",
    "ansible_system_capabilities": [
        ""
    ],
    "ansible_system_capabilities_enforced": "True",
    "ansible_system_vendor": "Xen",
    "ansible_uptime_seconds": 151,
    "ansible_user_dir": "/home/zuul",
    "ansible_user_gecos": "",
    "ansible_user_gid": 1000,
    "ansible_user_id": "zuul",
    "ansible_user_shell": "/bin/bash",
    "ansible_user_uid": 1000,
    "ansible_userspace_architecture": "x86_64",
    "ansible_userspace_bits": "64",
    "ansible_virtualization_role": "guest",
    "ansible_virtualization_type": "xen",
    "gather_subset": [
        "all"
    ],
    "interfaces": [
        "bond0_2",
        "bond0_1",
        "bond0",
        "eth1_2",
        "eth3_1",
        "eth5",
        "eth4",
        "eth3",
        "eth2",
        "eth1",
        "eth0"
    ],
    "bond0": {
        "active": true,
        "device": "bond0",
        "ipv4": {
            "address": "192.168.0.1",
            "broadcast": "192.168.0.255",
            "netmask": "255.255.255.0",
            "network": "192.168.0.0",
            "prefix": "24"
        },
        "lacp_rate": "fast",
        "miimon": "100",
        "mode": "802.3ad",
        "mtu": 1500,
        "slaves": [
            "eth0",
            "eth2"
        ],
        "speed": 20000,
        "type": "bonding"
    },
    "bond0_1": {
        "ipv4_secondaries": [
            {
                "address": "192.168.0.182",
                "broadcast": "192.168.0.255",
                "netmask": "255.255.255.0",
                "network": "192.168.0.0",
                "prefix": "24"
            }
        ]
    },
    "bond0_2": {
        "ipv4_secondaries": [
            {
                "address": "192.168.0.179",
                "broadcast": "192.168.0.255",
                "netmask": "255.255.255.0",
                "network": "192.168.0.0",
                "prefix": "24"
            }
        ]
    },
    "eth0": {
        "active": true,
        "device": "eth0",
        "mtu": 1500,
        "speed": 10000,
        "type": "ether"
    },
    "eth1": {
        "active": true,
        "device": "eth1",
        "ipv4": {
            "address": "192.168.0.6",
            "broadcast": "192.168.0.255",
            "netmask": "255.255.255.0",
            "network": "192.168.0.0",
            "prefix": "24"
        },
        "mtu": 1500,
        "speed": 10000,
        "type": "ether"
    },
    "eth1_2": {
        "ipv4": {
            "address": "169.254.18.135",
            "broadcast": "169.254.31.255",
            "netmask": "255.255.240.0",
            "network": "169.254.16.0",
            "prefix": "20"
        }
    },
    "eth2": {
        "active": true,
        "device": "eth2",
        "mtu": 1500,
        "speed": 10000,
        "type": "ether"
    },
    "eth3": {
        "active": true,
        "device": "eth3",
        "ipv4": {
            "address": "192.168.0.6",
            "broadcast": "192.168.0.255",
            "netmask": "255.255.255.0",
            "network": "192.168.0.0",
            "prefix": "24"
        },
        "macaddress": "f8:f2:1e:88:79:b1",
        "mtu": 1500,
        "promisc": false,
        "speed": 10000,
        "type": "ether"
    },
    "eth3_1": {
        "ipv4": {
            "address": "169.254.8.152",
            "broadcast": "169.254.15.255",
            "netmask": "255.255.240.0",
            "network": "169.254.0.0",
            "prefix": "20"
        }
    },
    "eth4": {
        "active": false,
        "device": "eth4",
        "mtu": 1500,
        "type": "ether"
    },
    "eth5": {
        "active": false,
        "device": "eth5",
        "mtu": 1500,
        "type": "ether"
    },
    "module_setup": true,
    "databases": {
        "oracle": {
            "is_cluster": true,
            "cluster_name": "test-cluster",
            "instances": {
                "asm": {
                    "diskgroups": [
                        {
                            "allocation_unit_size": "1048576",
                            "block_size": "4096",
                            "cluster_id": "ba5d0db8c6613f8db2baf2a6463081a48d2b8452942cb64ab8d244kchgzkcjzk",
                            "cold_used_mb": "52958003",
                            "compatibility": "19.0.0.0.0",
                            "database_compatibility": "12.1.0.0.0",
                            "free_mb": "30928077",
                            "group_number": "1",
                            "hot_used_mb": "0",
                            "logical_sector_size": "512",
                            "name": "DGDATA",
                            "offline_disks": "0",
                            "required_mirror_free_mb": "0",
                            "sector_size": "512",
                            "state": "MOUNTED",
                            "total_mb": "83886080",
                            "type": "EXTERN",
                            "usable_file_mb": "30928077",
                            "voting_files": "Y"
                        },
                        {
                            "allocation_unit_size": "1048576",
                            "block_size": "4096",
                            "cluster_id": "ba5d0db8c6613f8db2baf2a6463081a48d2b8452942cb64ab8d244sklcskklsl",
                            "cold_used_mb": "468634",
                            "compatibility": "19.0.0.0.0",
                            "database_compatibility": "12.1.0.0.0",
                            "free_mb": "7919974",
                            "group_number": "2",
                            "hot_used_mb": "0",
                            "logical_sector_size": "512",
                            "name": "DGFRA",
                            "offline_disks": "0",
                            "required_mirror_free_mb": "0",
                            "sector_size": "512",
                            "state": "MOUNTED",
                            "total_mb": "8388608",
                            "type": "EXTERN",
                            "usable_file_mb": "7919974",
                            "voting_files": "N"
                        }
                    ],
                    "oracle_home": "/u01/oracle/19.0.0.0/grid",
                    "sid": "+ASM1",
                    "version": "19.6.0.0.200114",
                    "parameters": [
                        {
                            "name": "large_pool_size",
                            "value": "12M"
                        },
                        {
                            "name": "remote_login_passwordfile",
                            "value": "EXCLUSIVE"
                        },
                        {
                            "name": "asm_diskstring",
                            "value": "/dev/oracleasm/*"
                        },
                        {
                            "name": "asm_diskgroups",
                            "value": "DGFRA"
                        },
                        {
                            "name": "asm_power_limit",
                            "value": "1"
                        }
                    ]
                },
                "rdbms": [
                    {
                        "database": {},
                        "oracle_home": "/u01/oracle/19.0.0.0/dbhome_1",
                        "parameters": [],
                        "pdbs": [],
                        "sid": "ORCL1",
                        "version": "19.6.0.0.200114"
                    },
                    {
                        "database": {
                            "cluster_id": "0fea50887867f4953c05903ff062306a04ac04179c3216c1e1aea869b81aaaaa",
                            "created": "2017/04/25 14:47:09",
                            "database_role": "PRIMARY",
                            "database_size": "123456789",
                            "datafile_size": "123456789",
                            "redo_size": "123456789",
                            "tempfile_size": "123456789",
                            "dataguard_database_id": "80f043635a071457c76cffcb956c18ed76f6331d686476fbfa82580b9b4aaaaa",
                            "db_name": "ORCL",
                            "db_unique_name": "ORCL",
                            "dbid": "12345",
                            "flashback_on": "NO",
                            "force_logging": "YES",
                            "fra": {
                                "reclaimable": "142119796736",
                                "size": "1099511627776",
                                "used": "142121893888"
                            },
                            "is_cdb": false,
                            "is_cluster_database": true,
                            "log_mode": "ARCHIVELOG",
                            "resetlogs_time": "2017/04/25 14:47:09",
                            "tablespaces": [
                                {
                                    "bigfile": "YES",
                                    "block_size": "8192",
                                    "contents": "PERMANENT",
                                    "extent_management": "LOCAL",
                                    "force_logging": "YES",
                                    "logging": "LOGGING",
                                    "segment_space_management": "MANUAL",
                                    "tablespace_name": "SYSTEM",
                                    "space_size": "34358689792",
                                    "space_used": "1578565632",
                                    "space_max_size": "34358689792"
                                },
                                {
                                    "bigfile": "YES",
                                    "block_size": "8192",
                                    "contents": "PERMANENT",
                                    "extent_management": "LOCAL",
                                    "force_logging": "YES",
                                    "logging": "LOGGING",
                                    "segment_space_management": "AUTO",
                                    "tablespace_name": "SYSAUX",
                                    "space_size": "34358689792",
                                    "space_used": "1578565632",
                                    "space_max_size": "34358689792"
                                },
                                {
                                    "bigfile": "YES",
                                    "block_size": "8192",
                                    "contents": "TEMPORARY",
                                    "extent_management": "LOCAL",
                                    "force_logging": "NO",
                                    "logging": "NOLOGGING",
                                    "segment_space_management": "MANUAL",
                                    "tablespace_name": "TEMP",
                                    "space_size": "34358689792",
                                    "space_used": "1578565632",
                                    "space_max_size": "34358689792"
                                },
                                {
                                    "bigfile": "YES",
                                    "block_size": "8192",
                                    "contents": "PERMANENT",
                                    "extent_management": "LOCAL",
                                    "force_logging": "NO",
                                    "logging": "LOGGING",
                                    "segment_space_management": "AUTO",
                                    "tablespace_name": "USERS",
                                    "space_size": "34358689792",
                                    "space_used": "1578565632",
                                    "space_max_size": "34358689792"
                                },
                                {
                                    "bigfile": "YES",
                                    "block_size": "8192",
                                    "contents": "UNDO",
                                    "extent_management": "LOCAL",
                                    "force_logging": "NO",
                                    "logging": "LOGGING",
                                    "segment_space_management": "MANUAL",
                                    "tablespace_name": "UNDOTBS",
                                    "space_size": "34358689792",
                                    "space_used": "1578565632",
                                    "space_max_size": "34358689792"
                                }
                            ],
                            "users": [
                                {
                                    "account_status": "OPEN",
                                    "authentication_type": "PASSWORD",
                                    "common": "YES",
                                    "created": "2017/04/25 14:47:20",
                                    "default_tablespace": "SYSTEM",
                                    "expiry_date": "2017/04/25 14:47:20",
                                    "external_name": "",
                                    "initial_rsrc_consumer_group": "SYS_GROUP",
                                    "last_login": "2017/04/25 14:47:20",
                                    "local_temp_tablespace": "SYSTEM",
                                    "lock_date": "2017/04/25 14:47:20",
                                    "password_change_date": "2017/04/25 14:47:20",
                                    "password_versions": "10G 11G ",
                                    "profile": "DEFAULT",
                                    "proxy_only_connect": "N",
                                    "schema_size": "123456789",
                                    "temporary_tablespace": "TEMP",
                                    "username": "SYS"
                                },
                                {
                                    "account_status": "OPEN",
                                    "authentication_type": "PASSWORD",
                                    "common": "YES",
                                    "created": "2017/04/25 14:47:20",
                                    "default_tablespace": "SYSTEM",
                                    "expiry_date": "",
                                    "external_name": "",
                                    "initial_rsrc_consumer_group": "SYS_GROUP",
                                    "last_login": "2022/11/03 17:07:40",
                                    "local_temp_tablespace": "SYSTEM",
                                    "lock_date": "",
                                    "password_change_date": "2017/04/25 14:47:20",
                                    "password_versions": "10G 11G ",
                                    "profile": "DEFAULT",
                                    "proxy_only_connect": "N",
                                    "schema_size": "123456789",
                                    "temporary_tablespace": "TEMP",
                                    "username": "SYSTEM"
                                },
                                {
                                    "account_status": "OPEN",
                                    "authentication_type": "PASSWORD",
                                    "common": "YES",
                                    "created": "2017/04/25 14:50:57",
                                    "default_tablespace": "SYSAUX",
                                    "expiry_date": "",
                                    "external_name": "",
                                    "initial_rsrc_consumer_group": "DEFAULT_CONSUMER_GROUP",
                                    "last_login": "2022/12/19 22:30:33",
                                    "local_temp_tablespace": "SYSTEM",
                                    "lock_date": "",
                                    "password_change_date": "2018/05/22 14:35:25",
                                    "password_versions": "10G 11G ",
                                    "profile": "DEFAULT",
                                    "proxy_only_connect": "N",
                                    "schema_size": "123456789",
                                    "temporary_tablespace": "TEMP",
                                    "username": "DBSNMP"
                                }
                            ],
                            "services": [
                                {
                                    "name": "myservice1",
                                    "network_name": "myservice1"
                                }
                            ]
                        },
                        "oracle_home": "/u01/oracle/product/19.0.0.0/dbhome_1",
                        "parameters": [
                            {
                                "name": "long_module_action",
                                "value": "FALSE"
                            },
                            {
                                "name": "sga_max_size",
                                "value": "20G"
                            },
                            {
                                "name": "use_large_pages",
                                "value": "TRUE"
                            },
                            {
                                "name": "pre_page_sga",
                                "value": "FALSE"
                            },
                            {
                                "name": "streams_pool_size",
                                "value": "256M"
                            },
                            {
                                "name": "_kghdsidx_count",
                                "value": "2"
                            },
                            {
                                "name": "nls_length_semantics",
                                "value": "CHAR"
                            },
                            {
                                "name": "_disk_sector_size_override",
                                "value": "TRUE"
                            },
                            {
                                "name": "sga_target",
                                "value": "20G"
                            },
                            {
                                "name": "db_block_size",
                                "value": "8192"
                            },
                            {
                                "name": "compatible",
                                "value": "19.0.0.0"
                            },
                            {
                                "name": "log_archive_dest_1",
                                "value": "location=USE_DB_RECOVERY_FILE_DEST"
                            },
                            {
                                "name": "log_archive_dest_state_1",
                                "value": "ENABLE"
                            },
                            {
                                "name": "db_domain",
                                "value": "domain"
                            }
                        ],
                        "pdbs": [
                            {
                                "cluster_id": "f38e65c54d52bef2993878c2093254f9d9e07ff599906eea9f89a7b0f7aaaaaa",
                                "creation_time": "2020/09/22 17:53:53",
                                "database_size": "123456789",
                                "datafile_size": "123456789",
                                "redo_size": "123456789",
                                "tempfile_size": "123456789",
                                "dbid": "12345",
                                "guid": "f38e65c54d52bef2993878c2093254f9",
                                "is_cluster_database": true,
                                "name": "PDB1",
                                "open_mode": "READ WRITE",
                                "open_time": "2022/06/28 18:17:33",
                                "recovery_status": "ENABLED",
                                "restricted": "NO",
                                "tablespaces": [
                                    {
                                        "bigfile": "YES",
                                        "block_size": "8192",
                                        "contents": "PERMANENT",
                                        "extent_management": "LOCAL",
                                        "force_logging": "YES",
                                        "logging": "LOGGING",
                                        "segment_space_management": "AUTO",
                                        "tablespace_name": "SYSAUX",
                                        "space_size": "34358689792",
                                        "space_used": "1578565632",
                                        "space_max_size": "34358689792"
                                    },
                                    {
                                        "bigfile": "YES",
                                        "block_size": "8192",
                                        "contents": "PERMANENT",
                                        "extent_management": "LOCAL",
                                        "force_logging": "YES",
                                        "logging": "LOGGING",
                                        "segment_space_management": "MANUAL",
                                        "tablespace_name": "SYSTEM",
                                        "space_size": "34358689792",
                                        "space_used": "1578565632",
                                        "space_max_size": "34358689792"
                                    },
                                    {
                                        "bigfile": "YES",
                                        "block_size": "8192",
                                        "contents": "TEMPORARY",
                                        "extent_management": "LOCAL",
                                        "force_logging": "NO",
                                        "logging": "NOLOGGING",
                                        "segment_space_management": "MANUAL",
                                        "tablespace_name": "TEMP",
                                        "space_size": "34358689792",
                                        "space_used": "1578565632",
                                        "space_max_size": "34358689792"
                                    },
                                    {
                                        "bigfile": "YES",
                                        "block_size": "8192",
                                        "contents": "UNDO",
                                        "extent_management": "LOCAL",
                                        "force_logging": "NO",
                                        "logging": "LOGGING",
                                        "segment_space_management": "MANUAL",
                                        "tablespace_name": "UNDOTBS2",
                                        "space_size": "34358689792",
                                        "space_used": "1578565632",
                                        "space_max_size": "34358689792"
                                    }
                                ],
                                "users": [
                                    {
                                        "account_status": "OPEN",
                                        "authentication_type": "PASSWORD",
                                        "common": "YES",
                                        "created": "2020/09/22 17:19:48",
                                        "default_tablespace": "SYSTEM",
                                        "expiry_date": "",
                                        "external_name": "",
                                        "initial_rsrc_consumer_group": "SYS_GROUP",
                                        "last_login": "",
                                        "local_temp_tablespace": "TEMP",
                                        "lock_date": "",
                                        "password_change_date": "",
                                        "password_versions": "11G 12C ",
                                        "profile": "DEFAULT",
                                        "proxy_only_connect": "N",
                                        "schema_size": "123456789",
                                        "temporary_tablespace": "TEMP",
                                        "username": "SYS"
                                    },
                                    {
                                        "account_status": "OPEN",
                                        "authentication_type": "PASSWORD",
                                        "common": "YES",
                                        "created": "2020/09/22 17:19:48",
                                        "default_tablespace": "SYSTEM",
                                        "expiry_date": "",
                                        "external_name": "",
                                        "initial_rsrc_consumer_group": "SYS_GROUP",
                                        "last_login": "2020/12/29 15:44:43",
                                        "local_temp_tablespace": "TEMP",
                                        "lock_date": "",
                                        "password_change_date": "",
                                        "password_versions": "11G 12C ",
                                        "profile": "DEFAULT",
                                        "proxy_only_connect": "N",
                                        "schema_size": "123456789",
                                        "temporary_tablespace": "TEMP",
                                        "username": "SYSTEM"
                                    }
                                ],
                                "services": [
                                    {
                                        "name": "PDB1",
                                        "network_name": "PDB1"
                                    }
                                ]
                            }
                        ],
                        "sid": "ORCL",
                        "version": "19.6.0.0.200114"
                    }
                ]
            },
            "listeners": [
                {
                    "endpoints": [
                        {
                            "hostname": "myscan.domain",
                            "port": "1521"
                        }
                    ],
                    "name": "LISTENER_SCAN",
                    "oracle_home": "/u01/oracle/19.0.0.0/grid",
                    "services": [
                        {
                            "instances": ["ORCL"],
                            "name": "myservice1.domain"
                        },
                        {
                            "instances": ["ORCL"],
                            "name": "PDB1.domain"
                        }
                    ],
                    "type": "scan"
                },
                {
                    "endpoints": [
                        {
                            "hostname": "myserver.domain",
                            "port": "1521"
                        },
                        {
                            "hostname": "myserver-vip.domain",
                            "port": "1521"
                        }
                    ],
                    "name": "LISTENER",
                    "oracle_home": "/u01/oracle/19.0.0.0/grid",
                    "services": [
                        {
                            "instances": ["ORCL"],
                            "name": "myservice1.domain"
                        },
                        {
                            "instances": ["ORCL"],
                            "name": "PDB1.domain"
                        }
                    ],
                    "type": "local"
                }
            ],
            "skipped_instances": []
        }
    },
    "server_site": "site1"
}
